{
	"id": "13bdf996-3197-4735-a63b-210ea8d9c843",
	"name": "Simple Book API Environment",
	"values": [
		{
			"key": "orderID",
			"value": "",
			"type": "default",
			"enabled": true
		},
		{
			"key": "bookID",
			"value": "",
			"type": "default",
			"enabled": true
		}
	],
	"_postman_variable_scope": "environment",
	"_postman_exported_at": "2022-05-17T03:03:05.361Z",
	"_postman_exported_using": "Postman/9.18.2"
}